…
```r
rm(directory_in) # rm(col_types_tulsa)

lst_ds %>%
  purrr::walk(print)
```

```
## # A tibble: 108 x 5
##       ID                              Label MinValue MinNonnegative
##    <int>                              <chr>    <int>          <int>
##  1     1            IDOfOther1979RosterGen1       -4              1
##  2     2                      RosterGen1979       -4              1
##  3     3 SiblingNumberFrom1993SiblingRoster       -4              1
##  4     4           IDCodeOfOtherSiblingGen1       -5              3
##  5     5                    ShareBiomomGen1       -5              0
##  6     6                    ShareBiodadGen1       -5              0
##  7     9 IDCodeOfOtherInterviewedBiodadGen2       -7              1
##  8    10                    ShareBiodadGen2       -7              0
##  9    11               Gen1MomOfGen2Subject        2              2
## 10    13                   DateOfBirthMonth       -5              1
## # ... with 98 more rows, and 1 more variables: MaxValue <int>
…
##  9    11       Gen1Implicit
## 10    12 Gen2OutcomesWeight
## 11    13   Gen2OutcomesMath
## # A tibble: 8 x 2
##      ID            Label
##   <int>            <chr>
## 1     0       Irrelevant
## 2     1 StronglySupports
## 3     2         Supports
## 4     3       Consistent
## 5     4        Ambiguous
## 6     5          Missing
## 7     6         Unlikely
## 8     7      Disconfirms
## # A tibble: 28 x 3
##       ID               Label Explicit
##    <int>               <chr>    <int>
##  1     1          RosterGen1        1
##  2     2         ShareBiomom        1
##  3     3         ShareBiodad        1
##  4     5       DobSeparation        0
##  5     6     GenderAgreement        0
##  6    10        FatherAsthma        0
##  7    11     BabyDaddyAsthma        0
##  8    12 BabyDaddyLeftHHDate        0
##  9    13  BabyDaddyDeathDate        0
## 10    14      BabyDaddyAlive        0
## # ... with 18 more rows
…
##      ID          Label
##   <int>          <chr>
## 1     1 Gen1Housemates
## 2     2   Gen2Siblings
## 3     3    Gen2Cousins
## 4     4    ParentChild
## 5     5      AuntNiece
## # A tibble: 4 x 2
##      ID       Label
##   <int>       <chr>
## 1     0 NoInterview
## 2     1        Gen1
## 3     2       Gen2C
## 4     3      Gen2YA
## # A tibble: 206 x 9
##       ID SubjectTag_S1 SubjectTag_S2 Generation MultipleBirthIfSameSex
##    <int>         <int>         <int>      <int>                  <int>
##  1     1          5003          5004          2                      2
##  2     3         14303         14304          2                      2
##  3     5         15904         15905          2                      2
##  4     6         28805         28806          2                      2
##  5     8         36504         36505          2                      2
##  6     9         67703         67704          2                      2
##  7    10         73301         73302          2                      2
##  8    12         74301         74302          2                      2
##  9    13         77502         77503          2                      2
## 10    14         93001         93002          2                      2
## # ... with 196 more rows, and 4 more variables: IsMz <int>,
## #   Undecided <int>, Related <int>, Notes <chr>
## # A tibble: 909,870 x 24
##       ID AlgorithmVersion SubjectTag_S1 SubjectTag_S2
##    <int>            <int>         <int>         <int>
##  1     1               25           201           202
##  2     2               25           301           302
##  3     3               25           301           303
##  4     4               25           302           303
##  5     5               25           401           403
##  6     6               25           801           802
##  7     7               25           801           803
##  8     8               25           802           803
##  9     9               25          1001          1002
## 10    10               25          1201          1202
## # ... with 909,860 more rows, and 20 more variables:
## #   MultipleBirthIfSameSex <int>, IsMz <int>, SameGeneration <chr>,
## #   RosterAssignmentID <chr>, RRoster <chr>, LastSurvey_S1 <int>,
## #   LastSurvey_S2 <int>, RImplicitPass1 <dbl>, RImplicit <dbl>,
## #   RImplicitSubject <dbl>, RImplicitMother <dbl>, RImplicit2004 <dbl>,
## #   RExplicitOldestSibVersion <dbl>, RExplicitYoungestSibVersion <dbl>,
## #   RExplicitPass1 <dbl>, RExplicit <dbl>, RPass1 <dbl>, R <dbl>,
## #   RFull <dbl>, RPeek <chr>
## # A tibble: 1,559 x 10
##       ID VariableCode  Item Generation ExtractSource SurveySource
##    <int>        <chr> <int>      <int>         <int>        <int>
##  1     1     R0000149   101          1             3            1
##  2     2     R0216500    16          1             3            1
##  3     3     R0406510    16          1             3            1
##  4     4     R0619010    16          1             3            1
##  5     5     R0898310    16          1             3            1
##  6     6     R1145110    16          1             3            1
##  7     7     R1520310    16          1             3            1
##  8     8     R1891010    16          1             3            1
##  9     9     R2258110    16          1             3            1
## 10    10     R2445510    16          1             3            1
## # ... with 1,549 more rows, and 4 more variables: SurveyYear <int>,
## #   LoopIndex <int>, Translate <int>, Notes <chr>
```
…
