…
## Tibble size: 1.1 Mb

## Uploading from `nlsy79-gen1/Gen1GeocodeSanitized.csv` to `Extract.tblGen1GeocodeSanitized`.

## # A tibble: 5,302 x 29
##    Subj~ Subj~ DobD~ DobD~ DobD~ DobD~ DobD~ DobD~ Birt~ Birt~ Birt~ Birt~
##    <int> <int> <int> <int> <int> <int> <int> <int> <int> <int> <int> <int>
##  1   300   400 - 338 - 338    NA    NA     0     0     0     0     1     0
##  2   500   600 - 461 - 462 - 461 - 462     0     0     0     0     1     0
##  3  1300  1400 -1868 -1868 -1868 -1868     0     0     0     0     1     0
##  4  1700  1800 - 413 - 413 - 413 - 413     0     0     0     0     1     0
##  5  2000  2100 - 591 - 591 - 591 - 591     0     0     0     0     1     0
##  6  2300  2400 - 828 - 828 - 828 - 828     0     0     0     0     0     0
##  7  2700  2800 -1356 -1356 -1356 -1356     0     0     0     0     1     0
##  8  2900  3000   698   698   698   698     0     0     1     1     1     1
##  9  3200  3300 -1640    NA -1640    NA     0     0     1     1     0     1
## 10  3400  3500 -1730 -1732 -1730 -1732     0     0     0     0     1     0
## 11  3700  3800 -1406 -1409 -1406 -1409     0     0     0     0     1     0
## 12  4000  4100 - 772 - 772 - 772 - 772     0     0     0     0     1     0
## 13  5000  5100 -1596    NA -1596    NA     0     0     0     0     1     0
## 14  5500  5600 -1998 -1998    NA    NA     0     0     0     0     1     0
## 15  5800  5900 - 738 -1042 - 738 -1042     0     0     0     0     1     0
## 16  5800  6000 -1680 -1680 -1680 -1680     0     0     0     0     1     0
## 17  5900  6000 - 942 - 942 - 638 - 638     0     0     0     0     1     0
## 18  6100  6200 - 677 - 678 - 677 - 678     0     0     0     0     0     0
## 19  6300  6400 - 603 - 604 - 603 - 604     0     0     0     0     1     0
## 20  6300  6500 -1343 -1343 -1343 -1343     0     0     0     0     1     0
## # ... with 5,282 more rows, and 17 more variables:
## #   BirthSubjectStateMissing_2 <int>, BirthSubjectStateEqual <int>,
## #   BirthSubjectCountryMissing_1 <int>, BirthSubjectCountryMissing_2
## #   <int>, BirthSubjectCountryEqual <int>, BirthMotherStateMissing_1
## #   <int>, BirthMotherStateMissing_2 <int>, BirthMotherStateEqual <int>,
## #   BirthMotherCountryMissing_1 <int>, BirthMotherCountryMissing_2 <int>,
## #   BirthMotherCountryEqual <int>, BirthFatherStateMissing_1 <int>,
## #   BirthFatherStateMissing_2 <int>, BirthFatherStateEqual <int>,
## #   BirthFatherCountryMissing_1 <int>, BirthFatherCountryMissing_2 <int>,
…
