…
# d <- readr::read_csv("data-public/metadata/tables/variable_97.csv", col_types=lst_col_types$variable_97, comment = "#")
# readr::problems(d)
# ds_entries$entries[15]

ds_table <- database_inventory(study)
ds_table

## # A tibble: 28 x 6
##    schema_name table_name              row_count column_count space~ spac~
##  * <chr>       <chr>                       <int>        <int>  <int> <int>
##  1 Archive     tblArchiveDescription           0            4      0     0
##  2 Archive     tblRelatedValuesArchive         0           22     72    16
##  3 Enum        tblLUExtractSource              5            4     72    16
##  4 Enum        tblLUGender                     3            4     72    16
##  5 Enum        tblLUMarkerEvidence             8            4     72    16
##  6 Enum        tblLUMarkerType                28            5     72    16
##  7 Enum        tblLUMultipleBirth              5            4     72    16
##  8 Enum        tblLURaceCohort                 3            4     72    16
##  9 Enum        tblLURelationshipPath           5            4     72    16
## 10 Enum        tblLURoster                    90            4     72    16
## # ... with 18 more rows
…
## 1     0 Irrelevant       T      <NA> 
## 2     1 StronglySupports T      <NA> 
## 3     2 Supports         T      <NA> 
## 4     3 Consistent       T      <NA> 
## 5     4 Ambiguous        T      <NA> 
## 6     5 Missing          T      <NA> 
## 7     6 Unlikely         T      <NA> 
## 8     7 Disconfirms      T      <NA> 
## # A tibble: 3 x 4
##      ID Label           Active Notes
##   <int> <chr>           <lgl>  <chr>
## 1     1 Male            T      <NA> 
## 2     2 Female          T      <NA> 
## 3   255 InvalidSkipGen2 T      <NA> 
## # A tibble: 28 x 5
##       ID Label               Explicit Active Notes
##    <int> <chr>                  <int> <lgl>  <chr>
##  1     1 RosterGen1                 1 T      <NA> 
##  2     2 ShareBiomom                1 T      <NA> 
##  3     3 ShareBiodad                1 T      <NA> 
##  4     5 DobSeparation              0 T      <NA> 
##  5     6 GenderAgreement            0 T      <NA> 
##  6    10 FatherAsthma               0 T      <NA> 
##  7    11 BabyDaddyAsthma            0 T      <NA> 
##  8    12 BabyDaddyLeftHHDate        0 T      <NA> 
##  9    13 BabyDaddyDeathDate         0 T      <NA> 
## 10    14 BabyDaddyAlive             0 T      <NA> 
## # ... with 18 more rows
…
## # A tibble: 3 x 4
##      ID Label    Active Notes
##   <int> <chr>    <lgl>  <chr>
## 1     1 Hispanic T      <NA> 
## 2     2 Black    T      <NA> 
## 3     3 Nbnh     T      <NA> 
## # A tibble: 5 x 4
##      ID Label          Active Notes                               
##   <int> <chr>          <lgl>  <chr>                               
## 1     1 Gen1Housemates T      <NA>                                
## 2     2 Gen2Siblings   T      <NA>                                
## 3     3 Gen2Cousins    T      <NA>                                
## 4     4 ParentChild    T      <NA>                                
## 5     5 AuntNiece      T      Actually (Uncle|Aunt)-(Nephew|Niece)
## # A tibble: 90 x 4
##       ID Label           Active Notes
##    <int> <chr>           <lgl>  <chr>
##  1    -4 valid_skip      T      <NA> 
##  2     0 Identity        T      <NA> 
##  3     1 Wife            T      <NA> 
##  4     2 Husband         T      <NA> 
##  5     3 Mother          T      <NA> 
##  6     4 Father          T      <NA> 
##  7     7 Step-mother     T      <NA> 
##  8     8 Step-father     T      <NA> 
##  9     5 Adoptive mother T      <NA> 
## 10     6 Adoptive father T      <NA> 
## # ... with 80 more rows
…
##      ID Label     Active Notes
##   <int> <chr>     <lgl>  <chr>
## 1     0 No        T      <NA> 
## 2     1 Yes       T      <NA> 
## 3   255 DoNotKnow T      <NA> 
## # A tibble: 6 x 4
##      ID Label                               Active Notes
##   <int> <chr>                               <lgl>  <chr>
## 1    -6 ValidSkipOrNoInterviewOrNotInSurvey T      <NA> 
## 2    -3 InvalidSkip                         T      <NA> 
## 3    -2 DoNotKnow                           T      <NA> 
## 4    -1 Refusal                             T      <NA> 
## 5     0 No                                  T      <NA> 
## 6     1 Yes                                 T      <NA> 
## # A tibble: 208 x 8
##       ID SubjectTag_S1 SubjectTag_S2 Multiple~  IsMz Undec~ Rela~ Notes   
##    <int>         <int>         <int>     <int> <int>  <int> <int> <chr>   
##  1     1          5003          5004         2     0      0     1 Very Co~
##  2     3         14303         14304         2     0      0     1 Differe~
##  3     5         15904         15905         2     0      0     1 <NA>    
##  4     6         28805         28806         2     0      0     1 Differe~
##  5     8         36504         36505         2     1      0     1 Twice D~
##  6     9         67703         67704         2     0      0     1 1994-20~
##  7    10         73301         73302         2     1      0     1 Mostly ~
##  8    12         74301         74302         2     0      0     1 Differe~
##  9    13         77502         77503         2     1      0     1 1994-20~
## 10    14         93001         93002         2     1      0     1 1994-20~
## # ... with 198 more rows
## # A tibble: 127 x 9
##    VariableCode  Item ExtractSource Surve~ LoopI~ Tran~ Acti~ Notes Notes~
##    <chr>        <int>         <int>  <int>  <int> <int> <int> <chr> <chr> 
##  1 R0000100         1             1   1997      1     1     1 PUBID YOUTH~
##  2 R1193000         2             1   1997      1     1     1 SIDC~ HOUSE~
##  3 R0536300        10             1   1997      1     1     1 KEY!~ RS GE~
##  4 R0536401        11             1   1997      1     1     1 KEY!~ RS BI~
##  5 R0536402        12             1   1997      1     1     1 KEY!~ RS BI~
##  6 R1235800        13             1   1997      1     1     1 CV_S~ SAMPL~
##  7 R1097800       101             2   1997      1     1     1 HHI2~ ID OF~
##  8 R1097900       101             2   1997      2     1     1 HHI2~ ID OF~
##  9 R1098000       101             2   1997      3     1     1 HHI2~ ID OF~
## 10 R1098100       101             2   1997      4     1     1 HHI2~ ID OF~
## # ... with 117 more rows
…
