…
```
## Tibble size: 1.1 Mb
```

```
## Uploading from `nlsy79-gen1/Gen1GeocodeSanitized.csv` to `Extract.tblGen1GeocodeSanitized`.
```

```
## # A tibble: 5,302 x 29
##    SubjectTag_S1 SubjectTag_S2 DobDifferenceIn~ DobDifferenceIn~
##            <int>         <int>            <int>            <int>
##  1           300           400             -338             -338
##  2           500           600             -461             -462
##  3          1300          1400            -1868            -1868
##  4          1700          1800             -413             -413
##  5          2000          2100             -591             -591
##  6          2300          2400             -828             -828
##  7          2700          2800            -1356            -1356
##  8          2900          3000              698              698
##  9          3200          3300            -1640               NA
## 10          3400          3500            -1730            -1732
## 11          3700          3800            -1406            -1409
## 12          4000          4100             -772             -772
## 13          5000          5100            -1596               NA
## 14          5500          5600            -1998            -1998
## 15          5800          5900             -738            -1042
## 16          5800          6000            -1680            -1680
## 17          5900          6000             -942             -942
## 18          6100          6200             -677             -678
## 19          6300          6400             -603             -604
## 20          6300          6500            -1343            -1343
## # ... with 5,282 more rows, and 25 more variables:
## #   DobDifferenceInDays1981V1979 <int>,
## #   DobDifferenceInDays1981V1981 <int>, DobDayIsMissing1979_1 <int>,
## #   DobDayIsMissing1979_2 <int>, BirthSubjectCountyMissing_1 <int>,
## #   BirthSubjectCountyMissing_2 <int>, BirthSubjectCountyEqual <int>,
## #   BirthSubjectStateMissing_1 <int>, BirthSubjectStateMissing_2 <int>,
## #   BirthSubjectStateEqual <int>, BirthSubjectCountryMissing_1 <int>,
## #   BirthSubjectCountryMissing_2 <int>, BirthSubjectCountryEqual <int>,
## #   BirthMotherStateMissing_1 <int>, BirthMotherStateMissing_2 <int>,
…
