…
ds_file$entries %>%
  purrr::walk(print)

## # A tibble: 110 x 7
##       ID Label                              MinVa~ MinN~ MaxV~ Acti~ Notes
##    <int> <chr>                               <int> <int> <int> <lgl> <chr>
##  1     1 IDOfOther1979RosterGen1                -4     1 12557 T     <NA> 
##  2     2 RosterGen1979                          -4     1    66 T     <NA> 
##  3     3 SiblingNumberFrom1993SiblingRoster     -4     1    99 T     <NA> 
##  4     4 IDCodeOfOtherSiblingGen1               -5     3 12518 T     <NA> 
##  5     5 ShareBiomomGen1                        -5     0     2 T     <NA> 
##  6     6 ShareBiodadGen1                        -5     0     2 T     <NA> 
##  7     9 IDCodeOfOtherInterviewedBiodadGen2     -7     1    11 T     <NA> 
##  8    10 ShareBiodadGen2                        -7     0     3 T     <NA> 
##  9    11 Gen1MomOfGen2Subject                    2     2 12675 T     <NA> 
## 10    13 DateOfBirthMonth                       -5     1    12 T     <NA> 
## # ... with 100 more rows
…
## 10    12 Gen2OutcomesWeight T      <NA> 
## 11    13 Gen2OutcomesMath   T      <NA> 
## 12   100 gen_1_97_roster    T      <NA> 
## # A tibble: 8 x 4
##      ID Label            Active Notes
##   <int> <chr>            <lgl>  <chr>
## 1     0 Irrelevant       T      <NA> 
## 2     1 StronglySupports T      <NA> 
## 3     2 Supports         T      <NA> 
## 4     3 Consistent       T      <NA> 
## 5     4 Ambiguous        T      <NA> 
## 6     5 Missing          T      <NA> 
## 7     6 Unlikely         T      <NA> 
## 8     7 Disconfirms      T      <NA> 
## # A tibble: 28 x 5
##       ID Label               Explicit Active Notes
##    <int> <chr>                  <int> <lgl>  <chr>
##  1     1 RosterGen1                 1 T      <NA> 
##  2     2 ShareBiomom                1 T      <NA> 
##  3     3 ShareBiodad                1 T      <NA> 
##  4     5 DobSeparation              0 T      <NA> 
##  5     6 GenderAgreement            0 T      <NA> 
##  6    10 FatherAsthma               0 T      <NA> 
##  7    11 BabyDaddyAsthma            0 T      <NA> 
##  8    12 BabyDaddyLeftHHDate        0 T      <NA> 
##  9    13 BabyDaddyDeathDate         0 T      <NA> 
## 10    14 BabyDaddyAlive             0 T      <NA> 
## # ... with 18 more rows
…
## # A tibble: 3 x 4
##      ID Label    Active Notes
##   <int> <chr>    <lgl>  <chr>
## 1     1 Hispanic T      <NA> 
## 2     2 Black    T      <NA> 
## 3     3 Nbnh     T      <NA> 
## # A tibble: 5 x 4
##      ID Label          Active Notes                               
##   <int> <chr>          <lgl>  <chr>                               
## 1     1 Gen1Housemates T      <NA>                                
## 2     2 Gen2Siblings   T      <NA>                                
## 3     3 Gen2Cousins    T      <NA>                                
## 4     4 ParentChild    T      <NA>                                
## 5     5 AuntNiece      T      Actually (Uncle|Aunt)-(Nephew|Niece)
## # A tibble: 67 x 4
##       ID Label       Active Notes
##    <int> <chr>       <lgl>  <chr>
##  1    -4 ValidSkip   T      <NA> 
##  2    -3 InvalidSkip T      <NA> 
##  3    -1 Refusal     T      <NA> 
##  4     0 Respondent  T      <NA> 
##  5     1 Spouse      T      <NA> 
##  6     2 Son         T      <NA> 
##  7     3 Daughter    T      <NA> 
##  8     4 Father      T      <NA> 
##  9     5 Mother      T      <NA> 
## 10     6 Brother     T      <NA> 
## # ... with 57 more rows
…
##      ID Label     Active Notes
##   <int> <chr>     <lgl>  <chr>
## 1     0 No        T      <NA> 
## 2     1 Yes       T      <NA> 
## 3   255 DoNotKnow T      <NA> 
## # A tibble: 6 x 4
##      ID Label                               Active Notes
##   <int> <chr>                               <lgl>  <chr>
## 1    -6 ValidSkipOrNoInterviewOrNotInSurvey T      <NA> 
## 2    -3 InvalidSkip                         T      <NA> 
## 3    -2 DoNotKnow                           T      <NA> 
## 4    -1 Refusal                             T      <NA> 
## 5     0 No                                  T      <NA> 
## 6     1 Yes                                 T      <NA> 
## # A tibble: 208 x 9
##       ID SubjectTag_S1 SubjectTag_S2 Gener~ Multi~  IsMz Unde~ Rela~ Notes
##    <int>         <int>         <int>  <int>  <int> <int> <int> <int> <chr>
##  1     1          5003          5004      2      2     0     0     1 Very~
##  2     3         14303         14304      2      2     0     0     1 Diff~
##  3     5         15904         15905      2      2     0     0     1 <NA> 
##  4     6         28805         28806      2      2     0     0     1 Diff~
##  5     8         36504         36505      2      2     1     0     1 Twic~
##  6     9         67703         67704      2      2     0     0     1 1994~
##  7    10         73301         73302      2      2     1     0     1 Most~
##  8    12         74301         74302      2      2     0     0     1 Diff~
##  9    13         77502         77503      2      2     1     0     1 1994~
## 10    14         93001         93002      2      2     1     0     1 1994~
## # ... with 198 more rows
## # A tibble: 50 x 16
##       ID Respo~ Respo~  Freq Resol~      R RBoun~ RBoun~ Same~ Shar~ Shar~
##    <int>  <int>  <int> <int>  <int>  <dbl>  <dbl>  <dbl> <int> <int> <int>
##  1     1     -3    - 3    67      0 NA      0      1.00    255   255   255
##  2     2     -3    - 1    11      0 NA      0      1.00    255   255   255
##  3     3     -3     33     6      1  0      0      0         1     0     0
##  4     4     -3     36    35      1  0      0      0       255     0     0
##  5     5     -1     18     1      1  0.125  0.125  0.125     0     0     0
##  6     6     -1     36     3      1  0      0      0       255     0     0
##  7     7      1      1   167      1  0      0      0         1     0     0
##  8     8      1     33     1      1  0      0      0         1     0     0
##  9     9      1     36     1      1  0      0      0         1     0     0
## 10    10      1     57     1      1  0      0      0         1     0     0
## # ... with 40 more rows, and 5 more variables: ShareBiograndparent <int>,
## #   Inconsistent <int>, Notes <chr>, ResponseLowerLabel <chr>,
## #   ResponseUpperLabel <chr>
## # A tibble: 1,642 x 10
##    VariableCode  Item Generation Extr~ Surv~ Surv~ Loop~ Tran~ Acti~ Notes
##    <chr>        <int>      <int> <int> <int> <int> <int> <int> <int> <chr>
##  1 R0000100       100          1     3     1  1979     0     0     1 Is r~
##  2 C0000100       100          2     6     2     0     0     0     1 Is r~
##  3 R0000149       101          1     3     1  1979     0     0     1 Is r~
##  4 R0214800       102          1     3     1  1979     0     0     1 Is r~
##  5 C0005400       102          2     4     2     0     0     0     1 Is r~
##  6 R0214700       103          1     3     1  1979     0     1     1 No m~
##  7 C0005300       103          2     4     2     0     0     1     1 no m~
##  8 R0000150         1          1    10     1  1979     1     1     1 <NA> 
##  9 R0000152         1          1    10     1  1979     2     1     1 <NA> 
## 10 R0000154         1          1    10     1  1979     3     1     1 <NA> 
## # ... with 1,632 more rows
…
