…
  message(glue::glue("Tibble size: {format(object.size(d), units='MB')}"))
}
```

```
## Uploading from `nlsy97/97-links-explicit.csv` to `Extract.tblLinksExplicit`.
```

```
## # A tibble: 8,984 x 89
##    R000~ R053~ R053~ R053~ R082~ R082~ R082~ R082~ R082~ R082~ R082~ R082~
##    <int> <int> <int> <int> <int> <int> <int> <int> <int> <int> <int> <int>
##  1     1     2     9  1981    -4    -4    -4    -4    -4    -4    -4    -4
##  2     2     1     7  1982    -4    -4    -4    -4    -4    -4    -4    -4
##  3     3     2     9  1983    -4    -4    -4    -4    -4    -4    -4    -4
##  4     4     2     2  1981    -4    -4    -4    -4    -4    -4    -4    -4
##  5     5     1    10  1982    -4    -4    -4    -4    -4    -4    -4    -4
##  6     6     2     1  1982    -4    -4    -4    -4    -4    -4    -4    -4
##  7     7     1     4  1983    -4    -4    -4    -4    -4    -4    -4    -4
##  8     8     2     6  1981    -4    -4    -4    -4    -4    -4    -4    -4
##  9     9     1    10  1982    -4    -4    -4    -4    -4    -4    -4    -4
## 10    10     1     3  1984    -4    -4    -4    -4    -4    -4    -4    -4
## 11    11     2     6  1982    -4    -4    -4    -4    -4    -4    -4    -4
## 12    12     1    10  1981    -4    -4    -4    -4    -4    -4    -4    -4
## 13    13     1    11  1984    -4    -4    -4    -4    -4    -4    -4    -4
## 14    14     1     7  1980    -4    -4    -4    -4    -4    -4    -4    -4
## 15    15     2     1  1983    -4    -4    -4    -4    -4    -4    -4    -4
## 16    16     1     2  1982    -4    -4    -4    -4    -4    -4    -4    -4
## 17    17     2    11  1981    -4    -4    -4    -4    -4    -4    -4    -4
## 18    18     1     2  1982    -4    -4    -4    -4    -4    -4    -4    -4
## 19    19     1     4  1984    -4    -4    -4    -4    -4    -4    -4    -4
## 20    20     1    12  1980    -4    -4    -4    -4    -4    -4    -4    -4
## # ... with 8,964 more rows, and 77 more variables: R0823000 <int>,
## #   R0823100 <int>, R0823200 <int>, R0823300 <int>, R0823400 <int>,
## #   R0823500 <int>, R0823600 <int>, R0823700 <int>, R0823800 <int>,
## #   R0823900 <int>, R0824000 <int>, R0824100 <int>, R0824200 <int>,
## #   R0824300 <int>, R0824400 <int>, R0824500 <int>, R0824600 <int>,
## #   R0824700 <int>, R0824800 <int>, R0824900 <int>, R0825000 <int>,
## #   R0825100 <int>, R0825200 <int>, R0825300 <int>, R0825400 <int>,
## #   R1097800 <int>, R1097900 <int>, R1098000 <int>, R1098100 <int>,
## #   R1098200 <int>, R1098300 <int>, R1098400 <int>, R1098500 <int>,
…
```
## Tibble size: 3.1 Mb
```

```
## Uploading from `nlsy97/97-links-implicit.csv` to `Extract.tblLinksImplicit`.
```

```
## # A tibble: 8,984 x 45
##    R000~ R053~ R053~ R053~ R055~ R055~ R056~ R056~ R119~ R119~ R119~ R120~
##    <int> <int> <int> <int> <int> <int> <int> <int> <int> <int> <int> <int>
##  1     1     2     9  1981     1     3    -4    -4     1     1     1     6
##  2     2     1     7  1982   - 4    -4    -4    -4     2     1     1     4
##  3     3     2     9  1983     1    -4     8    -4     3     1     0     2
##  4     4     2     2  1981     4    -4     8    -4     4     1     1     2
##  5     5     1    10  1982    11     7    -4    -4     6     1     1     4
##  6     6     2     1  1982     3    -4    -4    -4     8     2     1     5
##  7     7     1     4  1983     3    -4    -4    -4     8     2     1     5
##  8     8     2     6  1981     4     4    -4    -4     9     3     2     5
##  9     9     1    10  1982     4     4    -4    -4     9     3     2     5
## 10    10     1     3  1984     4     4    -4    -4     9     3     2     5
## 11    11     2     6  1982     6    -4     5    -4    10     1     1     3
## 12    12     1    10  1981     2     5    -4    -4    11     1     1     4
## 13    13     1    11  1984   - 4    -4    -4    -4    12     1     0     4
## 14    14     1     7  1980     4     5    -4    -4    13     1     1     4
## 15    15     2     1  1983   - 4    -4    -4    -4    14     1     0     4
## 16    16     1     2  1982     5    -4    -4    -4    15     1     1     2
## 17    17     2    11  1981     6    -4    -4    -4    16     1     1     8
## 18    18     1     2  1982     3    -4    -4    -4    17     2     0     6
## 19    19     1     4  1984     3    -4    -4    -4    17     2     0     6
## 20    20     1    12  1980     4    -4     5    -4    18     1     1     4
## # ... with 8,964 more rows, and 33 more variables: R1211100 <int>,
## #   R1235800 <int>, R1302400 <int>, R1302500 <int>, R1482600 <int>,
## #   S0192900 <int>, S0193100 <int>, S0193500 <int>, S0193600 <int>,
## #   S0193800 <int>, S0193900 <int>, S5604900 <int>, S5605100 <int>,
## #   T3706800 <int>, T3706900 <int>, T4580500 <int>, T4580600 <int>,
## #   T4580700 <int>, T4580900 <int>, T4581100 <int>, Z0490900 <int>,
## #   Z0491000 <int>, Z0491100 <int>, Z0491200 <int>, Z0494800 <int>,
## #   Z0494900 <int>, Z0495000 <int>, Z0495100 <int>, Z0498500 <int>,
## #   Z0498700 <int>, Z0499200 <int>, Z0499400 <int>, Z0499500 <int>
## [1] 1
```

```
## Tibble size: 1.6 Mb
```

```
## Uploading from `nlsy97/97-roster.csv` to `Extract.tblRoster`.
```

```
## # A tibble: 8,984 x 416
##    R000~ R053~ R053~ R053~ R109~ R109~ R109~ R109~ R109~ R109~ R109~ R109~
##    <int> <int> <int> <int> <int> <int> <int> <int> <int> <int> <int> <int>
##  1     1     2     9  1981     6     1     4     2     3     5    -4    -4
##  2     2     1     7  1982     3     2     1     4    -4    -4    -4    -4
##  3     3     2     9  1983     2     1    -4    -4    -4    -4    -4    -4
##  4     4     2     2  1981     2     1    -4    -4    -4    -4    -4    -4
##  5     5     1    10  1982     3     1     2     4    -4    -4    -4    -4
##  6     6     2     1  1982     3     4     1     2     5    -4    -4    -4
##  7     7     1     4  1983     3     4     1     2     5    -4    -4    -4
##  8     8     2     6  1981     3     4     5     2     1    -4    -4    -4
##  9     9     1    10  1982     3     4     5     2     1    -4    -4    -4
## 10    10     1     3  1984     3     4     5     2     1    -4    -4    -4
## 11    11     2     6  1982     2     1     3    -4    -4    -4    -4    -4
## 12    12     1    10  1981     4     1     3     2    -4    -4    -4    -4
## 13    13     1    11  1984     2     1     3     4     5    -4    -4    -4
## 14    14     1     7  1980     3     1     2     4    -4    -4    -4    -4
## 15    15     2     1  1983     3     1     2     4    -4    -4    -4    -4
## 16    16     1     2  1982     2     1    -4    -4    -4    -4    -4    -4
## 17    17     2    11  1981     4     1     2     3     5     6     7     8
## 18    18     1     2  1982     6     2     1     3     4     5    -4    -4
## 19    19     1     4  1984     6     2     1     3     4     5    -4    -4
## 20    20     1    12  1980     2     3     4     1    -4    -4    -4    -4
## # ... with 8,964 more rows, and 404 more variables: R1098600 <int>,
## #   R1098700 <int>, R1098800 <int>, R1098900 <int>, R1099000 <int>,
## #   R1099100 <int>, R1099200 <int>, R1099300 <int>, R1101000 <int>,
## #   R1101100 <int>, R1101200 <int>, R1101300 <int>, R1101400 <int>,
## #   R1101500 <int>, R1101600 <int>, R1101700 <int>, R1101800 <int>,
## #   R1101900 <int>, R1102000 <int>, R1102100 <int>, R1102200 <int>,
## #   R1102300 <int>, R1102400 <int>, R1102500 <int>, R1102501 <int>,
## #   R1102600 <int>, R1102700 <int>, R1102800 <int>, R1102900 <int>,
## #   R1103000 <int>, R1103100 <int>, R1103200 <int>, R1103300 <int>,
…
