…
```r
# d <- readr::read_csv("data-public/metadata/tables/variable_97.csv", col_types=lst_col_types$variable_97, comment = "#")
# readr::problems(d)
# ds_entries$entries[15]

ds_table <- database_inventory(study)
ds_table
```

```
## # A tibble: 33 x 6
##    schema_name table_name            row_count column_count space_total_kb
##  * <chr>       <chr>                     <int>        <int>          <int>
##  1 Archive     tblArchiveDescription         7            3             72
##  2 Archive     tblRelatedValuesArch~     25190           23           2264
##  3 dbo         sysdiagrams                   0            5              0
##  4 Enum        tblLUExtractSource            6            4             72
##  5 Enum        tblLUGender                   3            4             72
##  6 Enum        tblLUMarkerEvidence           8            4             72
##  7 Enum        tblLUMarkerType              28            5             72
##  8 Enum        tblLUMultipleBirth            5            4             72
##  9 Enum        tblLURaceCohort               4            4             72
## 10 Enum        tblLURoster                  92            4             72
## # ... with 23 more rows, and 1 more variable: space_used_kb <int>
```
…
```
## # A tibble: 7 x 3
##   AlgorithmVersion Description                                  Date      
##              <int> <chr>                                        <date>    
## 1                1 naive roster                                 2018-01-17
## 2                2 account for twins                            2018-01-18
## 3                3 same sib full twins are R=.5 by default, an~ 2018-02-14
## 4                7 allows nulls for RFull                       2018-06-19
## 5                8 recover different-sex full sibs              2018-06-19
## 6                9 recover same-sex full sibs                   2018-06-19
## 7               10 allow nonsibs to still be r>0                2018-06-19
## # A tibble: 26 x 7
##       ID Label           MinValue MinNonnegative MaxValue Active Notes    
##    <int> <chr>              <int>          <int>    <int> <lgl>  <chr>    
##  1     1 subject_id             1              1     9022 TRUE   <NA>     
##  2     2 extended_famil~        1              1     9022 TRUE   <NA>     
##  3     3 hh_internal_id         1              1        5 TRUE   <NA>     
##  4    10 gender                 1              1        2 TRUE   <NA>     
##  5    11 DateOfBirthMon~        1              1       12 TRUE   <NA>     
##  6    12 DateOfBirthYear     1980           1980     1984 TRUE   <NA>     
##  7    13 cross_sectiona~        0              0        1 TRUE   <NA>     
##  8    14 race_cohort            1              1        4 TRUE   race-eth~
##  9    20 InterviewDateD~       -7              1       31 TRUE   <NA>     
## 10    21 InterviewDateM~       -7              1       12 TRUE   <NA>     
## # ... with 16 more rows
…
## 1     0 Irrelevant       TRUE   <NA> 
## 2     1 StronglySupports TRUE   <NA> 
## 3     2 Supports         TRUE   <NA> 
## 4     3 Consistent       TRUE   <NA> 
## 5     4 Ambiguous        TRUE   <NA> 
## 6     5 Missing          TRUE   <NA> 
## 7     6 Unlikely         TRUE   <NA> 
## 8     7 Disconfirms      TRUE   <NA> 
## # A tibble: 3 x 4
##      ID Label           Active Notes
##   <int> <chr>           <lgl>  <chr>
## 1     1 Male            TRUE   <NA> 
## 2     2 Female          TRUE   <NA> 
## 3   255 InvalidSkipGen2 TRUE   <NA> 
## # A tibble: 28 x 5
##       ID Label               Explicit Active Notes
##    <int> <chr>                  <int> <lgl>  <chr>
##  1     1 Roster                     1 TRUE   <NA> 
##  2     2 ShareBiomom                1 TRUE   <NA> 
##  3     3 ShareBiodad                1 TRUE   <NA> 
##  4     5 DobSeparation              0 FALSE  <NA> 
##  5     6 GenderAgreement            0 FALSE  <NA> 
##  6    10 FatherAsthma               0 FALSE  <NA> 
##  7    11 BabyDaddyAsthma            0 FALSE  <NA> 
##  8    12 BabyDaddyLeftHHDate        0 FALSE  <NA> 
##  9    13 BabyDaddyDeathDate         0 FALSE  <NA> 
## 10    14 BabyDaddyAlive             0 FALSE  <NA> 
## # ... with 18 more rows
…
##      ID Label      Active Notes                                           
##   <int> <chr>      <lgl>  <chr>                                           
## 1     0 No         TRUE   <NA>                                            
## 2     2 Twin       TRUE   <NA>                                            
## 3     3 Trip       TRUE   <NA>                                            
## 4     4 TwinOrTrip FALSE  Currently Then Gen1 algorithm doesn't distingui~
## 5   255 DoNotKnow  TRUE   <NA>                                            
## # A tibble: 4 x 4
##      ID Label    Active Notes
##   <int> <chr>    <lgl>  <chr>
## 1     1 Black    TRUE   <NA> 
## 2     2 Hispanic TRUE   <NA> 
## 3     3 Mixed    TRUE   <NA> 
## 4     4 Nbnh     TRUE   <NA> 
## # A tibble: 92 x 4
##       ID Label       Active Notes
##    <int> <chr>       <lgl>  <chr>
##  1    -4 valid_skip  TRUE   <NA> 
##  2    -2 do_not_know TRUE   <NA> 
##  3    -1 refusal     TRUE   <NA> 
##  4     0 self        TRUE   <NA> 
##  5     1 wife        TRUE   <NA> 
##  6     2 husband     TRUE   <NA> 
##  7     3 mother      TRUE   <NA> 
##  8     4 father      TRUE   <NA> 
##  9     7 mother_step TRUE   <NA> 
## 10     8 father_step TRUE   <NA> 
## # ... with 82 more rows
…
##      ID Label     Active Notes
##   <int> <chr>     <lgl>  <chr>
## 1     0 No        TRUE   <NA> 
## 2     1 Yes       TRUE   <NA> 
## 3   255 DoNotKnow TRUE   <NA> 
## # A tibble: 6 x 4
##      ID Label                               Active Notes
##   <int> <chr>                               <lgl>  <chr>
## 1    -6 ValidSkipOrNoInterviewOrNotInSurvey TRUE   <NA> 
## 2    -3 InvalidSkip                         TRUE   <NA> 
## 3    -2 DoNotKnow                           TRUE   <NA> 
## 4    -1 Refusal                             TRUE   <NA> 
## 5     0 No                                  TRUE   <NA> 
## 6     1 Yes                                 TRUE   <NA> 
## # A tibble: 90 x 8
##       ID SubjectTag_S1 SubjectTag_S2 MultipleBirthIfSameS~  IsMz Undecided
##    <int>         <int>         <int>                 <int> <int>     <int>
##  1     1            66            67                     0     0         0
##  2     2            75            76                     2     1         0
##  3     3           116           117                     2     1         0
##  4     4           222           223                     2     0         0
##  5     5           343           344                     3   255         1
##  6     6           343           345                     3   255         1
##  7     7           344           345                     3   255         1
##  8     8           351           352                     2     1         0
##  9     9           447           448                     2     1         0
## 10    10           588           589                     2     0         0
## # ... with 80 more rows, and 2 more variables: Related <int>, Notes <chr>
## # A tibble: 31 x 16
##       ID ResponseLower ResponseUpper  Freq Resolved     R RBoundLower
##    <int>         <int>         <int> <int>    <int> <dbl>       <dbl>
##  1     1            -2            -1     2        0 NA           0   
##  2     2            -1            -1     2        0 NA           0   
##  3     3            13            13  1034        0  0.5         0.5 
##  4     4            13            14  2034        1  0.5         0.5 
##  5     5            14            14  1154        0  0.5         0.5 
##  6     6            15            15    48        1  0.25        0.25
##  7     7            15            18   132        1  0.25        0.25
##  8     8            16            19     2        1  0.25        0.25
##  9     9            18            18    62        1  0.25        0.25
## 10    10            19            19     8        1  0.25        0.25
## # ... with 21 more rows, and 9 more variables: RBoundUpper <dbl>,
## #   SameGeneration <dbl>, ShareBiodad <int>, ShareBiomom <int>,
## #   ShareBiograndparent <int>, Inconsistent <int>, Notes <chr>,
## #   ResponseLowerLabel <chr>, ResponseUpperLabel <chr>
## # A tibble: 551 x 11
##    VariableCode  Item ExtractSource SurveyYear LoopIndex1 LoopIndex2
##    <chr>        <int>         <int>      <int>      <int>      <int>
##  1 R0000100         1             1       1997          1          1
##  2 R1193000         2             1       1997          1          1
##  3 R0533400         3             1       1997          1          1
##  4 R0536300        10             1       1997          1          1
##  5 R0536401        11             1       1997          1          1
##  6 R0536402        12             1       1997          1          1
##  7 R1235800        13             1       1997          1          1
##  8 R1482600        14             1       1997          1          1
##  9 R1097800       101             2       1997          1          1
## 10 R1097900       101             2       1997          2          1
## # ... with 541 more rows, and 5 more variables: Translate <int>,
## #   Active <int>, Notes <chr>, QuestionName <chr>, VariableTitle <chr>
```
…
