…
```r
# d <- readr::read_csv("data-public/metadata/tables/variable_79.csv", col_types=lst_col_types$variable_79, comment = "#")
# readr::problems(d)
# ds_entries$entries[15]

ds_table <- database_inventory(study)
ds_table
```

```
## # A tibble: 51 x 6
##    schema_name table_name row_count column_count space_total_kb
##  * <chr>       <chr>          <int>        <int>          <int>
##  1 Archive     tblArchiv~        57            3             72
##  2 Archive     tblRelate~    789184           24          32464
##  3 dbo         sysdiagra~         4            5            280
##  4 Enum        tblLUBiop~         0            2              0
##  5 Enum        tblLUExtr~        12            4             72
##  6 Enum        tblLUGend~         3            4             72
##  7 Enum        tblLUMark~         8            4             72
##  8 Enum        tblLUMark~        28            5             72
##  9 Enum        tblLUMult~         5            4             72
## 10 Enum        tblLURace~         3            4             72
## # ... with 41 more rows, and 1 more variable: space_used_kb <int>
```
…
ds_file$entries %>%
  purrr::walk(print)
```

```
## # A tibble: 57 x 3
##    AlgorithmVersion Description                                 Date      
##               <int> <chr>                                       <date>    
##  1               32 Unites Gen2 V28 with Gen1 that uses only e~ NA        
##  2               26 One of the last Gen2 version, before focus~ NA        
##  3               33 Replaces all Gen2 NULLS with .375s          NA        
##  4               34 Gen2 RExplicits uses Twin determinations (~ NA        
##  5               35 Unites Gen1 Again                           NA        
##  6               36 Includes AuntNieces, ParentChildren & Gen2~ NA        
##  7               37 Updated Gen1Links tagset for 2010 wave      NA        
##  8               38 Updated Gen2FatherFromGen1 tagset for 2010~ NA        
##  9               39 Updated Gen2LinksFromGen1 tagset for 2010 ~ NA        
## 10               40 Updated Gen2Links and Gen2ImplicitFather t~ NA        
## # ... with 47 more rows
## # A tibble: 110 x 7
##       ID Label               MinValue MinNonnegative MaxValue Active Notes
##    <int> <chr>                  <int>          <int>    <int> <lgl>  <chr>
##  1     1 IDOfOther1979Roste~       -4              1    12557 TRUE   <NA> 
##  2     2 RosterGen1979             -4              1       66 TRUE   <NA> 
##  3     3 SiblingNumberFrom1~       -4              1       99 TRUE   <NA> 
##  4     4 IDCodeOfOtherSibli~       -5              3    12518 TRUE   <NA> 
##  5     5 ShareBiomomGen1           -5              0        2 TRUE   <NA> 
##  6     6 ShareBiodadGen1           -5              0        2 TRUE   <NA> 
##  7     9 IDCodeOfOtherInter~       -7              1       11 TRUE   <NA> 
##  8    10 ShareBiodadGen2           -7              0        3 TRUE   <NA> 
##  9    11 Gen1MomOfGen2Subje~        2              2    12675 TRUE   <NA> 
## 10    13 DateOfBirthMonth          -5              1       12 TRUE   <NA> 
## # ... with 100 more rows
…
## 1     0 Irrelevant       TRUE   <NA> 
## 2     1 StronglySupports TRUE   <NA> 
## 3     2 Supports         TRUE   <NA> 
## 4     3 Consistent       TRUE   <NA> 
## 5     4 Ambiguous        TRUE   <NA> 
## 6     5 Missing          TRUE   <NA> 
## 7     6 Unlikely         TRUE   <NA> 
## 8     7 Disconfirms      TRUE   <NA> 
## # A tibble: 3 x 4
##      ID Label           Active Notes
##   <int> <chr>           <lgl>  <chr>
## 1     1 Male            TRUE   <NA> 
## 2     2 Female          TRUE   <NA> 
## 3   255 InvalidSkipGen2 TRUE   <NA> 
## # A tibble: 28 x 5
##       ID Label               Explicit Active Notes
##    <int> <chr>                  <int> <lgl>  <chr>
##  1     1 RosterGen1                 1 TRUE   <NA> 
##  2     2 ShareBiomom                1 TRUE   <NA> 
##  3     3 ShareBiodad                1 TRUE   <NA> 
##  4     5 DobSeparation              0 TRUE   <NA> 
##  5     6 GenderAgreement            0 TRUE   <NA> 
##  6    10 FatherAsthma               0 TRUE   <NA> 
##  7    11 BabyDaddyAsthma            0 TRUE   <NA> 
##  8    12 BabyDaddyLeftHHDate        0 TRUE   <NA> 
##  9    13 BabyDaddyDeathDate         0 TRUE   <NA> 
## 10    14 BabyDaddyAlive             0 TRUE   <NA> 
## # ... with 18 more rows
…
## # A tibble: 3 x 4
##      ID Label    Active Notes
##   <int> <chr>    <lgl>  <chr>
## 1     1 Hispanic TRUE   <NA> 
## 2     2 Black    TRUE   <NA> 
## 3     3 Nbnh     TRUE   <NA> 
## # A tibble: 5 x 4
##      ID Label          Active Notes                               
##   <int> <chr>          <lgl>  <chr>                               
## 1     1 Gen1Housemates TRUE   <NA>                                
## 2     2 Gen2Siblings   TRUE   <NA>                                
## 3     3 Gen2Cousins    TRUE   <NA>                                
## 4     4 ParentChild    TRUE   <NA>                                
## 5     5 AuntNiece      TRUE   Actually (Uncle|Aunt)-(Nephew|Niece)
## # A tibble: 67 x 4
##       ID Label       Active Notes
##    <int> <chr>       <lgl>  <chr>
##  1    -4 ValidSkip   TRUE   <NA> 
##  2    -3 InvalidSkip TRUE   <NA> 
##  3    -1 Refusal     TRUE   <NA> 
##  4     0 Respondent  TRUE   <NA> 
##  5     1 Spouse      TRUE   <NA> 
##  6     2 Son         TRUE   <NA> 
##  7     3 Daughter    TRUE   <NA> 
##  8     4 Father      TRUE   <NA> 
##  9     5 Mother      TRUE   <NA> 
## 10     6 Brother     TRUE   <NA> 
## # ... with 57 more rows
…
##      ID Label     Active Notes
##   <int> <chr>     <lgl>  <chr>
## 1     0 No        TRUE   <NA> 
## 2     1 Yes       TRUE   <NA> 
## 3   255 DoNotKnow TRUE   <NA> 
## # A tibble: 6 x 4
##      ID Label                               Active Notes
##   <int> <chr>                               <lgl>  <chr>
## 1    -6 ValidSkipOrNoInterviewOrNotInSurvey TRUE   <NA> 
## 2    -3 InvalidSkip                         TRUE   <NA> 
## 3    -2 DoNotKnow                           TRUE   <NA> 
## 4    -1 Refusal                             TRUE   <NA> 
## 5     0 No                                  TRUE   <NA> 
## 6     1 Yes                                 TRUE   <NA> 
## # A tibble: 208 x 9
##       ID SubjectTag_S1 SubjectTag_S2 Generation MultipleBirthIf~  IsMz
##    <int>         <int>         <int>      <int>            <int> <int>
##  1     1          5003          5004          2                2     0
##  2     3         14303         14304          2                2     0
##  3     5         15904         15905          2                2     0
##  4     6         28805         28806          2                2     0
##  5     8         36504         36505          2                2     1
##  6     9         67703         67704          2                2     0
##  7    10         73301         73302          2                2     1
##  8    12         74301         74302          2                2     0
##  9    13         77502         77503          2                2     1
## 10    14         93001         93002          2                2     1
## # ... with 198 more rows, and 3 more variables: Undecided <int>,
## #   Related <int>, Notes <chr>
## # A tibble: 50 x 16
##       ID ResponseLower ResponseUpper  Freq Resolved      R RBoundLower
##    <int>         <int>         <int> <int>    <int>  <dbl>       <dbl>
##  1     1            -3            -3    67        0 NA           0    
##  2     2            -3            -1    11        0 NA           0    
##  3     3            -3            33     6        1  0           0    
##  4     4            -3            36    35        1  0           0    
##  5     5            -1            18     1        1  0.125       0.125
##  6     6            -1            36     3        1  0           0    
##  7     7             1             1   167        1  0           0    
##  8     8             1            33     1        1  0           0    
##  9     9             1            36     1        1  0           0    
## 10    10             1            57     1        1  0           0    
## # ... with 40 more rows, and 9 more variables: RBoundUpper <dbl>,
## #   SameGeneration <int>, ShareBiodad <int>, ShareBiomom <int>,
## #   ShareBiograndparent <int>, Inconsistent <int>, Notes <chr>,
## #   ResponseLowerLabel <chr>, ResponseUpperLabel <chr>
## # A tibble: 1,820 x 10
##    VariableCode  Item Generation ExtractSource SurveySource SurveyYear
##    <chr>        <int>      <int>         <int>        <int>      <int>
##  1 R0000100       100          1             3            1       1979
##  2 C0000100       100          2             6            2          0
##  3 R0000149       101          1             3            1       1979
##  4 R0214800       102          1             3            1       1979
##  5 C0005400       102          2             4            2          0
##  6 R0214700       103          1             3            1       1979
##  7 C0005300       103          2             4            2          0
##  8 R0000150         1          1            10            1       1979
##  9 R0000152         1          1            10            1       1979
## 10 R0000154         1          1            10            1       1979
## # ... with 1,810 more rows, and 4 more variables: LoopIndex <int>,
## #   Translate <int>, Active <int>, Notes <chr>
```
…
