…
```
## # A tibble: 2,519 x 22
##    ExtendedID SubjectTag_S1 SubjectTag_S2 SubjectID_S1 SubjectID_S2
##         <int>         <int>         <int>        <int>        <int>
##  1          8             6             7            6            7
##  2          9             8             9            8            9
##  3          9             8            10            8           10
##  4          9             9            10            9           10
##  5         17            18            19           18           19
##  6         37            37            38           37           38
##  7         44            45            46           45           46
##  8         45            47            48           47           48
##  9         48            51            52           51           52
## 10         59            62            63           62           63
## # ... with 2,509 more rows, and 17 more variables: RelationshipPath <int>,
## #   EverSharedHouse <lgl>, R <dbl>, RFull <dbl>,
## #   MultipleBirthIfSameSex <int>, IsMz <int>, LastSurvey_S1 <int>,
## #   LastSurvey_S2 <int>, RImplicitPass1 <dbl>, RImplicit <dbl>,
## #   RExplicit <dbl>, RExplicitPass1 <dbl>, RPass1 <dbl>,
## #   RExplicitOlderSibVersion <dbl>, RExplicitYoungerSibVersion <dbl>,
## #   RImplicitSubject <dbl>, RImplicitMother <dbl>
```
…
```
## # A tibble: 2,519 x 22
##    ExtendedID SubjectTag_S1 SubjectTag_S2 SubjectID_S1 SubjectID_S2
##         <int>         <int>         <int>        <int>        <int>
##  1          8             6             7            6            7
##  2          9             8             9            8            9
##  3          9             8            10            8           10
##  4          9             9            10            9           10
##  5         17            18            19           18           19
##  6         37            37            38           37           38
##  7         44            45            46           45           46
##  8         45            47            48           47           48
##  9         48            51            52           51           52
## 10         59            62            63           62           63
## # ... with 2,509 more rows, and 17 more variables: RelationshipPath <int>,
## #   EverSharedHouse <lgl>, R <dbl>, RFull <dbl>,
## #   MultipleBirthIfSameSex <int>, IsMz <int>, LastSurvey_S1 <int>,
## #   LastSurvey_S2 <int>, RImplicitPass1 <dbl>, RImplicit <dbl>,
## #   RExplicit <dbl>, RExplicitPass1 <dbl>, RPass1 <dbl>,
## #   RExplicitOlderSibVersion <dbl>, RExplicitYoungerSibVersion <dbl>,
## #   RImplicitSubject <dbl>, RImplicitMother <dbl>
```
…
