…
ds_subject_survey
```

```
## # A tibble: 74,013 x 8
##    subject_tag survey_year generation   age height~ weight~ afqt_s~ fathe~
##          <int>       <int>      <int> <dbl>   <dbl>   <dbl>   <dbl>  <dbl>
##  1         200        1981          1  22.1    NA       120    6.84  NA   
##  2         200        1982          1  23.1    62.0     125   NA     NA   
##  3         200        1985          1  26.1    62.0     118   NA     NA   
##  4         300        1981          1  NA      NA        NA   49.4   NA   
##  5         300        1982          1  20.6    70.0     160   NA     NA   
##  6         300        1985          1  23.5    70.0     152   NA     NA   
##  7         400        1981          1  18.6    NA       110   55.8   NA   
##  8         400        1982          1  19.5    67.0     109   NA     NA   
##  9         400        1985          1  22.7    67.0     126   NA     NA   
## 10         401        1984          2  NA      NA        NA   NA      1.00
## # ... with 74,003 more rows
```
…
```r
# dput(colnames(ds_subject_survey)) # Print colnames for line below.
columns_to_write <- c(
  "subject_tag", "generation",
  "height_inches", "weight_pounds", "afqt_scaled_gen1",
  "father_alive"
)
ds_slim_subject <- ds_subject %>%
  # dplyr::slice(1:100) %>%
  dplyr::select(!!columns_to_write)
ds_slim_subject
```

```
## # A tibble: 19,562 x 6
##    subject_tag generation height_inches weight_pounds afqt_scale~ father_~
##          <int>      <int>         <dbl>         <dbl>       <dbl>    <dbl>
##  1         200          1          62.0           120        6.84    NA   
##  2         300          1          70.0           160       49.4     NA   
##  3         400          1          67.0           110       55.8     NA   
##  4         401          2          NA              NA       NA        1.00
##  5         500          1          63.0           130       96.8     NA   
##  6         600          1          65.0           200       99.4     NA   
##  7         700          1          67.0           131       47.4     NA   
##  8         800          1          65.0           179       44.0     NA   
##  9         801          2          NA              NA       NA        1.00
## 10         802          2          NA              NA       NA        1.00
## # ... with 19,552 more rows
```
…
```r
# dput(colnames(ds_subject_survey)) # Print colnames for line below.
columns_to_write <- c(
  "subject_tag", "survey_year", "generation", "age",
  "height_inches", "weight_pounds", "afqt_scaled_gen1",
  "father_alive"
)
ds_slim_subject_survey <- ds_subject_survey %>%
  # dplyr::slice(1:100) %>%
  dplyr::select(!!columns_to_write)
ds_slim_subject_survey
```

```
## # A tibble: 74,013 x 8
##    subject_tag survey_year generation   age height~ weight~ afqt_s~ fathe~
##          <int>       <int>      <int> <dbl>   <dbl>   <dbl>   <dbl>  <dbl>
##  1         200        1981          1  22.1    NA       120    6.84  NA   
##  2         200        1982          1  23.1    62.0     125   NA     NA   
##  3         200        1985          1  26.1    62.0     118   NA     NA   
##  4         300        1981          1  NA      NA        NA   49.4   NA   
##  5         300        1982          1  20.6    70.0     160   NA     NA   
##  6         300        1985          1  23.5    70.0     152   NA     NA   
##  7         400        1981          1  18.6    NA       110   55.8   NA   
##  8         400        1982          1  19.5    67.0     109   NA     NA   
##  9         400        1985          1  22.7    67.0     126   NA     NA   
## 10         401        1984          2  NA      NA        NA   NA      1.00
## # ... with 74,003 more rows
```
…
