…
ds_subject_survey

## # A tibble: 118,822 x 8
##    subject_tag survey_year generation   age height_inches weight_pounds
##          <int>       <int>      <int> <dbl>         <dbl>         <dbl>
##  1         200        1981          1  22.1            NA           120
##  2         200        1982          1  23.1            62           125
##  3         200        1985          1  26.1            62           118
##  4         201        1998          2   5.2            NA            NA
##  5         201        2000          2   7.2            NA            NA
##  6         201        2002          2   9.3            NA            NA
##  7         201        2004          2  11.3            NA            NA
##  8         202        2000          2   5.6            NA            NA
##  9         202        2002          2   7.6            NA            NA
## 10         202        2004          2   9.6            NA            NA
## # ... with 118,812 more rows, and 2 more variables:
## #   afqt_scaled_gen1 <dbl>, father_alive <dbl>
…
# dput(colnames(ds_subject_survey)) # Print colnames for line below.
columns_to_write <- c(
  "subject_tag", "generation",
  "height_inches", "weight_pounds", "afqt_scaled_gen1",
  "father_alive"
)
ds_slim_subject <- ds_subject %>%
  # dplyr::slice(1:100) %>%
  dplyr::select(!!columns_to_write)
ds_slim_subject

## # A tibble: 22,718 x 6
##    subject_tag generation height_inches weight_pounds afqt_scaled_gen1
##          <int>      <int>         <dbl>         <dbl>            <dbl>
##  1         200          1            62           120             6.84
##  2         201          2            NA            NA            NA   
##  3         202          2            NA            NA            NA   
##  4         300          1            70           160            49.4 
##  5         301          2            NA            NA            NA   
##  6         302          2            NA            NA            NA   
##  7         303          2            NA            NA            NA   
##  8         400          1            67           110            55.8 
##  9         401          2            NA            NA            NA   
## 10         500          1            63           130            96.8 
## # ... with 22,708 more rows, and 1 more variable: father_alive <dbl>

rm(columns_to_write)

# dput(colnames(ds_subject_survey)) # Print colnames for line below.
columns_to_write <- c(
  "subject_tag", "survey_year", "generation", "age",
  "height_inches", "weight_pounds", "afqt_scaled_gen1",
  "father_alive"
)
ds_slim_subject_survey <- ds_subject_survey %>%
  # dplyr::slice(1:100) %>%
  dplyr::select(!!columns_to_write)
ds_slim_subject_survey

## # A tibble: 118,822 x 8
##    subject_tag survey_year generation   age height_inches weight_pounds
##          <int>       <int>      <int> <dbl>         <dbl>         <dbl>
##  1         200        1981          1  22.1            NA           120
##  2         200        1982          1  23.1            62           125
##  3         200        1985          1  26.1            62           118
##  4         201        1998          2   5.2            NA            NA
##  5         201        2000          2   7.2            NA            NA
##  6         201        2002          2   9.3            NA            NA
##  7         201        2004          2  11.3            NA            NA
##  8         202        2000          2   5.6            NA            NA
##  9         202        2002          2   7.6            NA            NA
## 10         202        2004          2   9.6            NA            NA
## # ... with 118,812 more rows, and 2 more variables:
## #   afqt_scaled_gen1 <dbl>, father_alive <dbl>
…
